qn10/subtractor.vcd
$date
	Fri Jan 23 00:18:06 2026
$end
$version
	Icarus Verilog
$end
$timescale
	1s
$end
$scope module fullSubtractor_tb $end
$var wire 1 ! diff $end
$var wire 1 " borrow $end
$var reg 1 # a $end
$var reg 1 $ b $end
$var reg 1 % c $end
$scope module DUT $end
$var wire 1 # a $end
$var wire 1 $ b $end
$var wire 1 " borrow $end
$var wire 1 % c $end
$var wire 1 & w3 $end
$var wire 1 ' w2 $end
$var wire 1 ( w1 $end
$var wire 1 ! diff $end
$scope module H1 $end
$var wire 1 # a $end
$var wire 1 $ b $end
$var wire 1 ' borrow $end
$var wire 1 ( diff $end
$upscope $end
$scope module H2 $end
$var wire 1 ( a $end
$var wire 1 % b $end
$var wire 1 & borrow $end
$var wire 1 ! diff $end
$upscope $end
$upscope $end
$upscope $end
$enddefinitions $end
$comment Show the parameter values. $end
$dumpall
$end
#0
$dumpvars
0(
0'
0&
0%
0$
0#
0"
0!
$end
#10
1"
1!
1&
1%
#20
0&
1(
1'
0%
1$
#30
0!
1%
#40
0"
1!
0'
0%
0$
1#
#50
0!
1%
#60
0(
0%
1$
#70
1"
1!
1&
1%
